[
	{
		"nombre":"Cristiano Ronaldo",
		"nickname":"Cristiano_Ronaldo",
		"nacionalidad":"Real Madrid"
	},
	{
		"nombre":"Robert Lewandowski",
		"nickname":"Robert_Lewandowski",
		"nacionalidad":"Bayern"
	},
	{
		"nombre":"Thomas Muller",
		"nickname":"Thomas_Muller",
		"nacionalidad":"Bayern"
	},
	{
		"nombre":"Luis Suarez",
		"nickname":"Luis_Suarez",
		"nacionalidad":"Barcelona"
	},
	{
		"nombre":"Antoine Griezmann",
		"nickname":"Antoine_Griezmann",
		"nacionalidad":"Atletico"
	},
	{
		"nombre":"Lionel Messi",
		"nickname":"Lionel_Messi",
		"nacionalidad":"Barcelona"
	}
]